{
    "name": "Maya Teahouse",
    "version": "0.1.0",
    "description": "Documentation for Maya Teahouse",
    "title": "Maya Teahouse",
    "url" : "https://{URL}/",
    "template": {
        "showRequiredLabels": true,
        "withCompare": true,
        "withGenerator": true
    }
}