{
    "/js/app.js": "/js/app.js",
    "/js/products.js": "/js/products.js",
    "/js/cashier.js": "/js/cashier.js",
    "/css/app.css": "/css/app.css",
    "/css/business-casual.css": "/css/business-casual.css",
    "/css/style.css": "/css/style.css",
    "/css/sidebar/simple-sidebar.css": "/css/sidebar/simple-sidebar.css",
    "/assets/images/global/about.jpg": "/assets/images/global/about.jpg",
    "/assets/images/global/bg.jpg": "/assets/images/global/bg.jpg",
    "/assets/images/global/bg2.jpg": "/assets/images/global/bg2.jpg",
    "/assets/images/global/bg3.jpg": "/assets/images/global/bg3.jpg",
    "/assets/images/global/intro.jpg": "/assets/images/global/intro.jpg",
    "/assets/images/global/products-01.jpg": "/assets/images/global/products-01.jpg",
    "/assets/images/global/products-02.jpg": "/assets/images/global/products-02.jpg",
    "/assets/images/global/products-03.jpg": "/assets/images/global/products-03.jpg",
    "/assets/images/maya-logo.jpg": "/assets/images/maya-logo.jpg",
    "/assets/images/noimage.png": "/assets/images/noimage.png"
}
